de/chickenwings/model/Flug.class
de/chickenwings/model/Buchung.class
de/chickenwings/model/types/Kategorie.class
de/chickenwings/model/Person.class
de/chickenwings/api/ejb/FlugsucheService.class
de/chickenwings/model/types/Flugzeugtyp.class
de/chickenwings/api/ejb/MyFooservice.class
de/chickenwings/model/Flugzeug.class
