-------------------------------------------------------------------------------
Test set: de.chickenwings.SmokeTest
-------------------------------------------------------------------------------
Tests run: 1, Failures: 0, Errors: 0, Skipped: 0, Time elapsed: 3.221 sec
